{ "_id" : "dialog-sms-service-code-charging-amount-mapping", "value" : { "1123" : "5", "1345" : "10", "1567" : "15", "1789" : "20" } }
{ "_id" : "governDaemonDelay", "value" : 0 }
{ "_id" : "governDaemonInterval", "value" : 2 }
{ "_id" : "internal-hosts", "value" : [ "127.0.0.1" ] }
{ "_id" : "sbl-sms-receiver-addresses", "value" : { "dialog" : "http://sbl.sdp.hnb:8000/sms/send", "etisalat" : "http://sbl.sdp.hnb:8000/sms/send", "hutch" : "http://sbl.sdp.hnb:8000/sms/send", "airtel" : "http://sbl.sdp.hnb:8000/sms/send", "mobitel" : "http://sbl.sdp.hnb:8000/sms/send" } }
{ "_id" : "sbl-ussd-receiver-addresses", "value" : { "dialog" : "http://sbl.sdp.hnb:8000/ussd/send", "etisalat" : "http://sbl.sdp.hnb:8000/ussd/send", "hutch" : "http://sbl.sdp.hnb:8000/ussd/send", "airtel" : "http://sbl.sdp.hnb:8000/ussd/send", "mobitel" : "http://sbl.sdp.hnb:8000/ussd/send" } }
{ "_id" : "sbl-wappush-receiver-addresses", "value" : { "dialog" : "http://sbl.sdp.hnb:8000/sms/send", "etisalat" : "http://sbl.sdp.hnb:8000/sms/send", "hutch" : "http://sbl.sdp.hnb:8000/sms/send", "airtel" : "http://sbl.sdp.hnb:8000/sms/send", "mobitel" : "http://sbl.sdp.hnb:8000/sms/send" } }
{ "_id" : "supported-ncses-and-operators", "value" : { "sms" : [ "dialog", "etisalat", "hutch", "airtel", "mobitel" ], "ussd" : [ "dialog", "etisalat", "hutch", "airtel", "mobitel" ] } }
