{"brand":"Nokia", "model":"Nokia 5800", "platform-id":"symbian", "platform-versions":["S60"]}
{"brand":"Nokia", "model":"Nokia 6120", "platform-id":"symbian", "platform-versions":["S60"]}
{"brand":"Nokia", "model":"Nokia 6680", "platform-id":"symbian", "platform-versions":["S60"]}
{"brand":"Nokia", "model":"Nokia 5300", "platform-id":"symbian", "platform-versions":["S60"]}

{"brand":"Samsung", "model":"Galaxy Y", "platform-id":"android", "platform-versions":["2.1", "2.2"]}
{"brand":"Samsung", "model":"Galaxy S", "platform-id":"android", "platform-versions":["2.1", "2.2"]}
{"brand":"Samsung", "model":"Galaxy S II", "platform-id":"android", "platform-versions":["2.1"]}
{"brand":"Samsung", "model":"Galaxy Nexus", "platform-id":"android", "platform-versions":["2.1", "3.1", "4.0"]}

{"brand":"HTC", "model":"My Touch 3G", "platform-id":"android", "platform-versions":["2.1", "2.2"]}
{"brand":"HTC", "model":"My Touch 4G", "platform-id":"android", "platform-versions":["2.1", "2.3"]}
